<?xml version="1.0" encoding="UTF-8" standalone="no"?>
<!-- Created with Inkscape (http://www.inkscape.org/) -->

<svg
   xmlns:dc="http://purl.org/dc/elements/1.1/"
   xmlns:cc="http://creativecommons.org/ns#"
   xmlns:rdf="http://www.w3.org/1999/02/22-rdf-syntax-ns#"
   xmlns:svg="http://www.w3.org/2000/svg"
   xmlns="http://www.w3.org/2000/svg"
   xmlns:sodipodi="http://sodipodi.sourceforge.net/DTD/sodipodi-0.dtd"
   xmlns:inkscape="http://www.inkscape.org/namespaces/inkscape"
   width="210mm"
   height="297mm"
   id="svg2"
   version="1.1"
   inkscape:version="0.48.4 r9939"
   sodipodi:docname="grafico_ciclos.svg"
   inkscape:export-filename="/home/felipe/Documentos/U/logica/informes/informe-logica-3/imagenes/grafico_historia.png"
   inkscape:export-xdpi="135.06"
   inkscape:export-ydpi="135.06">
  <defs
     id="defs4">
    <marker
       inkscape:stockid="Arrow1Lend"
       orient="auto"
       refY="0.0"
       refX="0.0"
       id="Arrow1Lend"
       style="overflow:visible;">
      <path
         id="path3764"
         d="M 0.0,0.0 L 5.0,-5.0 L -12.5,0.0 L 5.0,5.0 L 0.0,0.0 z "
         style="fill-rule:evenodd;stroke:#000000;stroke-width:1.0pt;"
         transform="scale(0.8) rotate(180) translate(12.5,0)" />
    </marker>
    <marker
       inkscape:stockid="Arrow1Lstart"
       orient="auto"
       refY="0.0"
       refX="0.0"
       id="Arrow1Lstart"
       style="overflow:visible">
      <path
         id="path3761"
         d="M 0.0,0.0 L 5.0,-5.0 L -12.5,0.0 L 5.0,5.0 L 0.0,0.0 z "
         style="fill-rule:evenodd;stroke:#000000;stroke-width:1.0pt"
         transform="scale(0.8) translate(12.5,0)" />
    </marker>
  </defs>
  <sodipodi:namedview
     id="base"
     pagecolor="#ffffff"
     bordercolor="#666666"
     borderopacity="1.0"
     inkscape:pageopacity="0.0"
     inkscape:pageshadow="2"
     inkscape:zoom="0.7"
     inkscape:cx="854.04335"
     inkscape:cy="937.10182"
     inkscape:document-units="px"
     inkscape:current-layer="layer1"
     showgrid="true"
     showguides="false"
     inkscape:window-width="1364"
     inkscape:window-height="766"
     inkscape:window-x="0"
     inkscape:window-y="0"
     inkscape:window-maximized="0">
    <inkscape:grid
       type="xygrid"
       id="grid2985" />
  </sodipodi:namedview>
  <metadata
     id="metadata7">
    <rdf:RDF>
      <cc:Work
         rdf:about="">
        <dc:format>image/svg+xml</dc:format>
        <dc:type
           rdf:resource="http://purl.org/dc/dcmitype/StillImage" />
        <dc:title />
      </cc:Work>
    </rdf:RDF>
  </metadata>
  <g
     inkscape:label="Capa 1"
     inkscape:groupmode="layer"
     id="layer1">
    <path
       style="fill:none;stroke:#000000;stroke-width:1.1102469px;stroke-linecap:butt;stroke-linejoin:miter;stroke-opacity:1;marker-start:url(#Arrow1Lstart);marker-end:url(#Arrow1Lend)"
       d="m 61.544969,259.48839 0,337.03387 646.468821,0"
       id="path2987"
       inkscape:connector-curvature="0" />
    <text
       xml:space="preserve"
       style="font-size:27.53385544px;font-style:normal;font-weight:normal;line-height:125%;letter-spacing:0px;word-spacing:0px;fill:#000000;fill-opacity:1;stroke:none;font-family:Sans"
       x="51.593948"
       y="662.00299"
       id="text4406"
       sodipodi:linespacing="125%"
       transform="scale(1.0624943,0.94118149)"><tspan
         sodipodi:role="line"
         id="tspan4408"
         x="51.593948"
         y="662.00299">0</tspan></text>
    <text
       xml:space="preserve"
       style="font-size:24.10105896px;font-style:normal;font-weight:normal;line-height:125%;letter-spacing:0px;word-spacing:0px;fill:#000000;fill-opacity:1;stroke:none;font-family:Sans"
       x="41.025566"
       y="305.36362"
       id="text4410"
       sodipodi:linespacing="125%"><tspan
         sodipodi:role="line"
         id="tspan4412"
         x="41.025566"
         y="305.36362">1</tspan></text>
    <text
       xml:space="preserve"
       style="font-size:22.41909599px;font-style:normal;font-weight:normal;line-height:125%;letter-spacing:0px;word-spacing:0px;fill:#000000;fill-opacity:1;stroke:none;font-family:Sans"
       x="135"
       y="617.36218"
       id="text4414"
       sodipodi:linespacing="125%"><tspan
         sodipodi:role="line"
         id="tspan4416"
         x="135"
         y="617.36218">1</tspan></text>
    <text
       xml:space="preserve"
       style="font-size:22.41909599px;font-style:normal;font-weight:normal;line-height:125%;letter-spacing:0px;word-spacing:0px;fill:#000000;fill-opacity:1;stroke:none;font-family:Sans"
       x="185"
       y="617.36218"
       id="text4414-0"
       sodipodi:linespacing="125%"><tspan
         sodipodi:role="line"
         id="tspan4416-2"
         x="185"
         y="617.36218">1,2</tspan></text>
    <text
       xml:space="preserve"
       style="font-size:22.41909599px;font-style:normal;font-weight:normal;line-height:125%;letter-spacing:0px;word-spacing:0px;fill:#000000;fill-opacity:1;stroke:none;font-family:Sans"
       x="280"
       y="617.36218"
       id="text4414-0-3"
       sodipodi:linespacing="125%"><tspan
         sodipodi:role="line"
         id="tspan4416-2-2"
         x="280"
         y="617.36218">3</tspan></text>
    <text
       xml:space="preserve"
       style="font-size:22.41909599px;font-style:normal;font-weight:normal;line-height:125%;letter-spacing:0px;word-spacing:0px;fill:#000000;fill-opacity:1;stroke:none;font-family:Sans"
       x="315"
       y="617.36218"
       id="text4414-0-3-0"
       sodipodi:linespacing="125%"><tspan
         sodipodi:role="line"
         id="tspan4416-2-2-5"
         x="315"
         y="617.36218">3,2</tspan></text>
    <text
       xml:space="preserve"
       style="font-size:22.41909599px;font-style:normal;font-weight:normal;line-height:125%;letter-spacing:0px;word-spacing:0px;fill:#000000;fill-opacity:1;stroke:none;font-family:Sans"
       x="400"
       y="617.36218"
       id="text4414-0-3-0-5"
       sodipodi:linespacing="125%"><tspan
         sodipodi:role="line"
         id="tspan4416-2-2-5-1"
         x="400"
         y="617.36218">5</tspan></text>
    <text
       xml:space="preserve"
       style="font-size:22.41909599px;font-style:normal;font-weight:normal;line-height:125%;letter-spacing:0px;word-spacing:0px;fill:#000000;fill-opacity:1;stroke:none;font-family:Sans"
       x="430"
       y="617.36218"
       id="text4414-0-3-0-5-5"
       sodipodi:linespacing="125%"><tspan
         sodipodi:role="line"
         id="tspan4416-2-2-5-1-9"
         x="430"
         y="617.36218">5,2</tspan></text>
    <text
       xml:space="preserve"
       style="font-size:22.41909599px;font-style:normal;font-weight:normal;line-height:125%;letter-spacing:0px;word-spacing:0px;fill:#000000;fill-opacity:1;stroke:none;font-family:Sans"
       x="650"
       y="617.36218"
       id="text4414-0-3-0-5-5-6"
       sodipodi:linespacing="125%"><tspan
         sodipodi:role="line"
         id="tspan4416-2-2-5-1-9-4"
         x="650"
         y="617.36218">10</tspan></text>
    <path
       style="fill:none;stroke:#ff0000;stroke-width:1px;stroke-linecap:butt;stroke-linejoin:miter;stroke-opacity:1"
       d="m 61,292.36218 94,0 50,304"
       id="path4544"
       inkscape:connector-curvature="0"
       sodipodi:nodetypes="ccc" />
    <path
       style="fill:none;stroke:#00ff00;stroke-width:1px;stroke-linecap:butt;stroke-linejoin:miter;stroke-opacity:1"
       d="m 155,596.36218 50,-304 75,0 55,305"
       id="path4546"
       inkscape:connector-curvature="0"
       sodipodi:nodetypes="cccc" />
    <path
       style="fill:none;stroke:#0000ff;stroke-width:1px;stroke-linecap:butt;stroke-linejoin:miter;stroke-opacity:1"
       d="m 450,597.36218 -30,-305 -90,0 -45,305"
       id="path4550"
       inkscape:connector-curvature="0"
       sodipodi:nodetypes="cccc" />
    <path
       style="fill:none;stroke:#808000;stroke-width:1px;stroke-linecap:butt;stroke-linejoin:miter;stroke-opacity:1"
       d="m 405,597.36218 45,-305 225,0 0,305"
       id="path4552"
       inkscape:connector-curvature="0"
       sodipodi:nodetypes="cccc" />
    <text
       xml:space="preserve"
       style="font-size:13.17779255px;font-style:normal;font-weight:normal;line-height:125%;letter-spacing:0px;word-spacing:0px;fill:#ff0000;fill-opacity:1;stroke:none;font-family:Sans"
       x="80"
       y="282.36218"
       id="text4575"
       sodipodi:linespacing="125%"><tspan
         sodipodi:role="line"
         id="tspan4577"
         x="80"
         y="282.36218">Bajos</tspan></text>
    <text
       xml:space="preserve"
       style="font-size:26.13471222px;font-style:normal;font-weight:normal;line-height:125%;letter-spacing:0px;word-spacing:0px;fill:#000000;fill-opacity:1;stroke:none;font-family:Sans"
       x="710"
       y="617.36218"
       id="text4633"
       sodipodi:linespacing="125%"><tspan
         sodipodi:role="line"
         id="tspan4635"
         x="710"
         y="617.36218">Ciclos (millones)</tspan></text>
    <text
       xml:space="preserve"
       style="font-size:13.17779255px;font-style:normal;font-weight:normal;line-height:125%;letter-spacing:0px;word-spacing:0px;fill:#00ff00;fill-opacity:1;stroke:none;font-family:Sans"
       x="230"
       y="282.36218"
       id="text4575-8"
       sodipodi:linespacing="125%"><tspan
         sodipodi:role="line"
         id="tspan4577-9"
         x="230"
         y="282.36218">Medios</tspan></text>
    <text
       xml:space="preserve"
       style="font-size:13.17779255px;font-style:normal;font-weight:normal;line-height:125%;letter-spacing:0px;word-spacing:0px;fill:#0000ff;fill-opacity:1;stroke:none;font-family:Sans"
       x="400"
       y="282.36218"
       id="text4575-8-8"
       sodipodi:linespacing="125%"><tspan
         sodipodi:role="line"
         id="tspan4577-9-9"
         x="400"
         y="282.36218">Muchos</tspan></text>
    <text
       xml:space="preserve"
       style="font-size:13.17779255px;font-style:normal;font-weight:normal;line-height:125%;letter-spacing:0px;word-spacing:0px;fill:#808000;fill-opacity:1;stroke:none;font-family:Sans"
       x="570"
       y="282.36218"
       id="text4575-8-8-1"
       sodipodi:linespacing="125%"><tspan
         sodipodi:role="line"
         id="tspan4577-9-9-3"
         x="570"
         y="282.36218">Demasiados</tspan></text>
  </g>
</svg>
